<?xml version="1.0" encoding="utf-8"?>
<!-- Generator: Adobe Illustrator 21.0.0, SVG Export Plug-In . SVG Version: 6.00 Build 0)  -->
<svg version="1.1" id="Layer_1" xmlns="http://www.w3.org/2000/svg" xmlns:xlink="http://www.w3.org/1999/xlink" x="0px" y="0px"
	 viewBox="0 0 41.3 33.4" style="enable-background:new 0 0 41.3 33.4;" xml:space="preserve">
<style type="text/css">
	.st0{fill:#FF5A0F;}
</style>
<path id="Path_77" class="st0" d="M24.5,0l-1.9,1.9l13.4,13.4H0v2.7h36.1L22.6,31.5l1.9,1.9l16.7-16.7L24.5,0z"/>
</svg>
