<?xml version="1.0" encoding="UTF-8"?>
<svg width="68px" height="68px" viewBox="0 0 68 68" version="1.1" xmlns="http://www.w3.org/2000/svg" xmlns:xlink="http://www.w3.org/1999/xlink">
    <!-- Generator: Sketch 49.1 (51147) - http://www.bohemiancoding.com/sketch -->
    <title>icon</title>
    <desc>Created with Sketch.</desc>
    <defs></defs>
    <g id="Symbols" stroke="none" stroke-width="1" fill="none" fill-rule="evenodd">
        <g id="FOOTER" transform="translate(-1432.000000, -460.000000)">
            <g id="icon" transform="translate(1432.000000, 460.000000)">
                <circle id="Oval" stroke="#93C020" stroke-width="3" cx="34" cy="34" r="32.5"></circle>
                <polygon id="arrow" fill="#93C020" points="35.8421053 49 32.1578947 49 32.1578947 26.1929825 21.6315789 36.6315789 19 34 34 19 49 34 46.3684211 36.7192982 35.8421053 26.1929825"></polygon>
            </g>
        </g>
    </g>
</svg>