<svg xmlns="http://www.w3.org/2000/svg" xmlns:xlink="http://www.w3.org/1999/xlink" viewBox="0 0 324.344 143.815">
  <defs>
    <style>
      .cls-1 {
        fill: url(#linear-gradient);
      }
    </style>
    <linearGradient id="linear-gradient" y1="0.5" x2="1" y2="0.5" gradientUnits="objectBoundingBox">
      <stop offset="0" stop-color="#595050"/>
      <stop offset="1" stop-color="#49464a"/>
    </linearGradient>
  </defs>
  <path id="Path_33" data-name="Path 33" class="cls-1" d="M324.344,143.815V0L0,143.815Z"/>
</svg>
