<svg xmlns="http://www.w3.org/2000/svg" viewBox="0 0 559.414 404.487">
  <defs>
    <style>
      .cls-1 {
        fill: #e0d6d4;
      }

      .cls-2 {
        fill: #f0efec;
      }

      .cls-3 {
        fill: #404040;
      }

      .cls-4 {
        fill: #f9b233;
      }

      .cls-5 {
        fill: #36a9e1;
      }

      .cls-6 {
        fill: #432918;
      }

      .cls-7 {
        fill: #ff5a0f;
      }

      .cls-8 {
        fill: #2d2509;
      }

      .cls-9 {
        fill: #063;
      }

      .cls-10 {
        fill: #33855c;
      }
    </style>
  </defs>
  <g id="Group_139" data-name="Group 139" transform="translate(-0.009)">
    <rect id="Rectangle_377" data-name="Rectangle 377" class="cls-1" width="262.505" height="329.63" transform="matrix(0.998, -0.068, 0.068, 0.998, 0.009, 75.615)"/>
    <g id="Group_105" data-name="Group 105" transform="translate(10.953 66.268)">
      <rect id="Rectangle_378" data-name="Rectangle 378" class="cls-2" width="262.505" height="329.63"/>
      <rect id="Rectangle_379" data-name="Rectangle 379" class="cls-3" width="180.654" height="4.623" transform="translate(13.528 102.571)"/>
      <rect id="Rectangle_380" data-name="Rectangle 380" class="cls-3" width="180.654" height="4.623" transform="translate(13.528 113.016)"/>
      <rect id="Rectangle_381" data-name="Rectangle 381" class="cls-3" width="180.654" height="4.623" transform="translate(13.528 123.633)"/>
      <rect id="Rectangle_382" data-name="Rectangle 382" class="cls-3" width="57.022" height="4.623" transform="translate(13.528 31.679)"/>
      <rect id="Rectangle_383" data-name="Rectangle 383" class="cls-3" width="57.022" height="4.623" transform="translate(13.528 42.124)"/>
      <rect id="Rectangle_384" data-name="Rectangle 384" class="cls-3" width="57.022" height="4.623" transform="translate(13.528 52.57)"/>
      <rect id="Rectangle_385" data-name="Rectangle 385" class="cls-3" width="180.654" height="4.623" transform="translate(13.528 134.078)"/>
      <rect id="Rectangle_386" data-name="Rectangle 386" class="cls-3" width="180.654" height="4.623" transform="translate(13.528 144.695)"/>
      <rect id="Rectangle_387" data-name="Rectangle 387" class="cls-3" width="180.654" height="4.623" transform="translate(13.528 155.14)"/>
      <rect id="Rectangle_388" data-name="Rectangle 388" class="cls-3" width="180.654" height="4.623" transform="translate(13.528 165.586)"/>
      <rect id="Rectangle_389" data-name="Rectangle 389" class="cls-3" width="180.654" height="4.623" transform="translate(13.528 176.202)"/>
      <rect id="Rectangle_390" data-name="Rectangle 390" class="cls-3" width="180.654" height="4.623" transform="translate(13.528 186.648)"/>
      <rect id="Rectangle_391" data-name="Rectangle 391" class="cls-3" width="180.654" height="4.623" transform="translate(13.528 197.264)"/>
      <rect id="Rectangle_392" data-name="Rectangle 392" class="cls-3" width="180.654" height="4.623" transform="translate(13.528 207.71)"/>
      <rect id="Rectangle_393" data-name="Rectangle 393" class="cls-3" width="180.654" height="4.623" transform="translate(13.528 218.155)"/>
      <rect id="Rectangle_394" data-name="Rectangle 394" class="cls-3" width="180.654" height="4.623" transform="translate(13.528 228.772)"/>
    </g>
    <g id="Group_106" data-name="Group 106" transform="translate(245.584 147.371)">
      <rect id="Rectangle_395" data-name="Rectangle 395" class="cls-4" width="7.021" height="3.596" transform="translate(17.675 4.108) rotate(-10.067)"/>
      <rect id="Rectangle_396" data-name="Rectangle 396" class="cls-4" width="72.433" height="3.596" transform="translate(37.19 74.235) rotate(-100.067)"/>
      <rect id="Rectangle_397" data-name="Rectangle 397" class="cls-3" width="21.062" height="76.029" transform="translate(0 3.682) rotate(-10.067)"/>
      <rect id="Rectangle_398" data-name="Rectangle 398" width="14.384" height="76.029" transform="translate(16.558 77.93) rotate(-10.067)"/>
    </g>
    <g id="Group_107" data-name="Group 107" transform="translate(312.162 244.708)">
      <circle id="Ellipse_11" data-name="Ellipse 11" class="cls-5" cx="56.508" cy="56.508" r="56.508" transform="translate(0 96.889) rotate(-59.021)"/>
      <circle id="Ellipse_12" data-name="Ellipse 12" class="cls-6" cx="45.72" cy="45.72" r="45.72" transform="translate(14.801 93.193) rotate(-59.021)"/>
      <path id="Path_78" data-name="Path 78" class="cls-5" d="M285.086,221.486l-2.4,3.938a5.04,5.04,0,0,1-7.021,1.712l-21.233-12.843a5.04,5.04,0,0,1-1.712-7.021l2.4-3.938a5.04,5.04,0,0,1,7.021-1.712l21.233,12.843A5.04,5.04,0,0,1,285.086,221.486Z" transform="translate(-132.69 -101.632)"/>
    </g>
    <g id="Group_138" data-name="Group 138" transform="translate(314.116)">
      <circle id="Ellipse_13" data-name="Ellipse 13" class="cls-7" cx="92.639" cy="92.639" r="92.639" transform="translate(0 57.847) rotate(-16.242)"/>
      <circle id="Ellipse_14" data-name="Ellipse 14" class="cls-8" cx="73.974" cy="73.974" r="73.974" transform="translate(23.141 70.547) rotate(-16.242)"/>
      <g id="Group_112" data-name="Group 112" transform="translate(112.594 132.879)">
        <g id="Group_108" data-name="Group 108" transform="translate(0 0.171)">
          <path id="Path_79" data-name="Path 79" class="cls-9" d="M251.257,77.7s-22.089,91.783,78.426,100.858" transform="translate(-249.197 -77.7)"/>
          <path id="Path_80" data-name="Path 80" class="cls-9" d="M250.4,77.7s94.351,1.027,78.426,100.858" transform="translate(-248.341 -77.7)"/>
        </g>
        <g id="Group_109" data-name="Group 109" transform="translate(10.759 17.811)">
          <rect id="Rectangle_399" data-name="Rectangle 399" class="cls-10" width="4.11" height="23.631" transform="translate(23.587 0) rotate(7.112)"/>
          <rect id="Rectangle_400" data-name="Rectangle 400" class="cls-10" width="4.11" height="23.631" transform="translate(0 21.911) rotate(-82.888)"/>
        </g>
        <g id="Group_110" data-name="Group 110" transform="translate(25.943 37.171)">
          <rect id="Rectangle_401" data-name="Rectangle 401" class="cls-10" width="4.11" height="23.631" transform="translate(23.659 0) rotate(7.112)"/>
          <rect id="Rectangle_402" data-name="Rectangle 402" class="cls-10" width="4.11" height="23.631" transform="translate(0 22.141) rotate(-82.888)"/>
        </g>
        <g id="Group_111" data-name="Group 111" transform="translate(41.149 56.679)">
          <rect id="Rectangle_403" data-name="Rectangle 403" class="cls-10" width="4.11" height="23.631" transform="translate(23.52) rotate(7.112)"/>
          <rect id="Rectangle_404" data-name="Rectangle 404" class="cls-10" width="4.11" height="23.631" transform="translate(0 22.053) rotate(-82.888)"/>
        </g>
        <path id="Path_81" data-name="Path 81" class="cls-10" d="M326.3,178.287c.856.171,1.884.171,2.911.342a17.071,17.071,0,0,0,.342-2.74l-76.2-98.118c-1.712-.171-2.74-.171-2.74-.171s-.171,1.027-.514,2.74Z" transform="translate(-248.554 -77.6)"/>
      </g>
      <g id="Group_117" data-name="Group 117" transform="translate(117.736 86.203)">
        <g id="Group_113" data-name="Group 113">
          <path id="Path_82" data-name="Path 82" class="cls-9" d="M252.2,67.3s54.282,77.228,127.571,7.706" transform="translate(-252.2 -38.261)"/>
          <path id="Path_83" data-name="Path 83" class="cls-9" d="M252.2,79.381s63.186-70.207,127.571,7.706" transform="translate(-252.2 -50.341)"/>
        </g>
        <g id="Group_114" data-name="Group 114" transform="translate(32.912 13.831)">
          <rect id="Rectangle_405" data-name="Rectangle 405" class="cls-10" width="4.11" height="23.631" transform="matrix(0.748, -0.663, 0.663, 0.748, 1.748, 2.726)"/>
          <rect id="Rectangle_406" data-name="Rectangle 406" class="cls-10" width="4.11" height="23.631" transform="matrix(-0.663, -0.748, 0.748, -0.663, 2.726, 35.007)"/>
        </g>
        <g id="Group_115" data-name="Group 115" transform="translate(57.477 15.225)">
          <rect id="Rectangle_407" data-name="Rectangle 407" class="cls-10" width="4.11" height="23.631" transform="matrix(0.748, -0.663, 0.663, 0.748, 1.766, 2.726)"/>
          <rect id="Rectangle_408" data-name="Rectangle 408" class="cls-10" width="4.11" height="23.631" transform="matrix(-0.663, -0.748, 0.748, -0.663, 2.726, 35.162)"/>
        </g>
        <g id="Group_116" data-name="Group 116" transform="translate(82.169 16.747)">
          <rect id="Rectangle_409" data-name="Rectangle 409" class="cls-10" width="4.11" height="23.631" transform="matrix(0.748, -0.663, 0.663, 0.748, 1.769, 2.726)"/>
          <rect id="Rectangle_410" data-name="Rectangle 410" class="cls-10" width="4.11" height="23.631" transform="matrix(-0.663, -0.748, 0.748, -0.663, 2.726, 35.076)"/>
        </g>
        <path id="Path_84" data-name="Path 84" class="cls-10" d="M377.716,77.673c.685-.685,1.37-1.2,2.055-1.884a25.616,25.616,0,0,1-1.884-2.226L254.084,66.2,252.2,68.084a17.537,17.537,0,0,0,1.712,2.226Z" transform="translate(-252.2 -39.044)"/>
      </g>
      <g id="Group_122" data-name="Group 122" transform="translate(13.453 100.512)">
        <g id="Group_118" data-name="Group 118">
          <path id="Path_85" data-name="Path 85" class="cls-9" d="M191.3,119.505s75.344,24.658,89.728-58.905" transform="translate(-191.3 -57.343)"/>
          <path id="Path_86" data-name="Path 86" class="cls-9" d="M191.3,120.86s7.192-78.94,89.728-58.905" transform="translate(-191.3 -58.698)"/>
        </g>
        <g id="Group_119" data-name="Group 119" transform="translate(16.788 33.054)">
          <rect id="Rectangle_411" data-name="Rectangle 411" class="cls-10" width="3.425" height="19.863" transform="matrix(0.202, -0.979, 0.979, 0.202, 0, 3.354)"/>
          <rect id="Rectangle_412" data-name="Rectangle 412" class="cls-10" width="3.425" height="19.863" transform="matrix(-0.979, -0.202, 0.202, -0.979, 16.957, 24.545)"/>
        </g>
        <g id="Group_120" data-name="Group 120" transform="translate(34.204 21.712)">
          <rect id="Rectangle_413" data-name="Rectangle 413" class="cls-10" width="3.425" height="19.863" transform="matrix(0.202, -0.979, 0.979, 0.202, 0, 3.354)"/>
          <rect id="Rectangle_414" data-name="Rectangle 414" class="cls-10" width="3.425" height="19.863" transform="matrix(-0.979, -0.202, 0.202, -0.979, 16.891, 24.573)"/>
        </g>
        <g id="Group_121" data-name="Group 121" transform="translate(51.487 10.168)">
          <rect id="Rectangle_415" data-name="Rectangle 415" class="cls-10" width="3.425" height="19.863" transform="matrix(0.202, -0.979, 0.979, 0.202, 0, 3.354)"/>
          <rect id="Rectangle_416" data-name="Rectangle 416" class="cls-10" width="3.425" height="19.863" transform="matrix(-0.979, -0.202, 0.202, -0.979, 16.992, 24.635)"/>
        </g>
        <path id="Path_87" data-name="Path 87" class="cls-10" d="M280.514,63.211c.171-.856.342-1.541.514-2.4-.856-.171-1.541-.342-2.4-.514l-86.988,57.193c-.171,1.37-.342,2.226-.342,2.226a16,16,0,0,1,2.226.685Z" transform="translate(-191.3 -57.557)"/>
      </g>
      <g id="Group_127" data-name="Group 127" transform="translate(49.091)">
        <g id="Group_123" data-name="Group 123" transform="translate(0 0.059)">
          <path id="Path_88" data-name="Path 88" class="cls-9" d="M212.776.1s-14.041,93.324,86.988,93.5" transform="translate(-212.112 0.012)"/>
          <path id="Path_89" data-name="Path 89" class="cls-9" d="M212.5.147s94.18-7.192,86.988,93.5" transform="translate(-211.836 -0.034)"/>
        </g>
        <g id="Group_124" data-name="Group 124" transform="translate(12.936 14.833)">
          <rect id="Rectangle_417" data-name="Rectangle 417" class="cls-10" width="4.11" height="23.631" transform="translate(21.558 0) rotate(2.048)"/>
          <rect id="Rectangle_418" data-name="Rectangle 418" class="cls-10" width="4.11" height="23.631" transform="translate(0 23.955) rotate(-87.952)"/>
        </g>
        <g id="Group_125" data-name="Group 125" transform="translate(29.667 32.983)">
          <rect id="Rectangle_419" data-name="Rectangle 419" class="cls-10" width="4.11" height="23.631" transform="translate(21.606 0) rotate(2.048)"/>
          <rect id="Rectangle_420" data-name="Rectangle 420" class="cls-10" width="4.11" height="23.631" transform="translate(0 23.922) rotate(-87.952)"/>
        </g>
        <g id="Group_126" data-name="Group 126" transform="translate(46.568 50.962)">
          <rect id="Rectangle_421" data-name="Rectangle 421" class="cls-10" width="4.11" height="23.631" transform="translate(21.49 0) rotate(2.048)"/>
          <rect id="Rectangle_422" data-name="Rectangle 422" class="cls-10" width="4.11" height="23.631" transform="translate(0 24.066) rotate(-87.952)"/>
        </g>
        <path id="Path_90" data-name="Path 90" class="cls-10" d="M296.891,93.666H299.8c0-1.027.171-1.884.171-2.911L215.382,0a18.42,18.42,0,0,0-2.74.171s-.171,1.027-.342,2.74Z" transform="translate(-211.978)"/>
      </g>
      <g id="Group_132" data-name="Group 132" transform="translate(146.979 17.809)">
        <g id="Group_128" data-name="Group 128">
          <path id="Path_91" data-name="Path 91" class="cls-9" d="M303.734,10.4s-53.426,16.952-27.227,70.892" transform="translate(-269.278 -10.4)"/>
          <path id="Path_92" data-name="Path 92" class="cls-9" d="M300.727,10.4S329.152,58.689,273.5,81.292" transform="translate(-266.27 -10.4)"/>
        </g>
        <g id="Group_129" data-name="Group 129" transform="translate(16.802 15.583)">
          <rect id="Rectangle_423" data-name="Rectangle 423" class="cls-10" width="2.397" height="14.041" transform="matrix(0.407, 0.913, -0.913, 0.407, 18.483, 6.318)"/>
          <rect id="Rectangle_424" data-name="Rectangle 424" class="cls-10" width="2.397" height="14.041" transform="matrix(0.913, -0.407, 0.407, 0.913, 0, 0.976)"/>
        </g>
        <g id="Group_130" data-name="Group 130" transform="translate(11.652 29.237)">
          <rect id="Rectangle_425" data-name="Rectangle 425" class="cls-10" width="2.397" height="14.041" transform="matrix(0.407, 0.913, -0.913, 0.407, 18.366, 6.316)"/>
          <rect id="Rectangle_426" data-name="Rectangle 426" class="cls-10" width="2.397" height="14.041" transform="matrix(0.913, -0.407, 0.407, 0.913, 0, 0.976)"/>
        </g>
        <g id="Group_131" data-name="Group 131" transform="translate(6.345 42.959)">
          <rect id="Rectangle_427" data-name="Rectangle 427" class="cls-10" width="2.397" height="14.041" transform="matrix(0.407, 0.913, -0.913, 0.407, 18.405, 6.244)"/>
          <rect id="Rectangle_428" data-name="Rectangle 428" class="cls-10" width="2.397" height="14.041" transform="matrix(0.913, -0.407, 0.407, 0.913, 0, 0.976)"/>
        </g>
        <path id="Path_93" data-name="Path 93" class="cls-10" d="M273.1,79.751c.171.514.514,1.027.685,1.541.514-.171,1.027-.514,1.541-.685L301.7,11.77a7.81,7.81,0,0,1-.685-1.37l-1.541.514Z" transform="translate(-266.554 -10.4)"/>
      </g>
      <g id="Group_137" data-name="Group 137" transform="translate(72.491 142.811)">
        <g id="Group_133" data-name="Group 133">
          <path id="Path_94" data-name="Path 94" class="cls-9" d="M260.234,83.4s-53.426,16.952-27.227,70.892" transform="translate(-225.778 -83.4)"/>
          <path id="Path_95" data-name="Path 95" class="cls-9" d="M257.227,83.4S285.652,131.689,230,154.292" transform="translate(-222.77 -83.4)"/>
        </g>
        <g id="Group_134" data-name="Group 134" transform="translate(16.978 15.704)">
          <rect id="Rectangle_429" data-name="Rectangle 429" class="cls-10" width="2.397" height="14.041" transform="matrix(0.407, 0.913, -0.913, 0.407, 18.454, 6.217)"/>
          <rect id="Rectangle_430" data-name="Rectangle 430" class="cls-10" width="2.397" height="14.041" transform="matrix(0.913, -0.407, 0.407, 0.913, 0, 0.976)"/>
        </g>
        <g id="Group_135" data-name="Group 135" transform="translate(11.671 29.427)">
          <rect id="Rectangle_431" data-name="Rectangle 431" class="cls-10" width="2.397" height="14.041" transform="matrix(0.407, 0.913, -0.913, 0.407, 18.494, 6.145)"/>
          <rect id="Rectangle_432" data-name="Rectangle 432" class="cls-10" width="2.397" height="14.041" transform="matrix(0.913, -0.407, 0.407, 0.913, 0, 0.976)"/>
        </g>
        <g id="Group_136" data-name="Group 136" transform="translate(6.365 43.15)">
          <rect id="Rectangle_433" data-name="Rectangle 433" class="cls-10" width="2.397" height="14.041" transform="matrix(0.407, 0.913, -0.913, 0.407, 18.603, 6.229)"/>
          <rect id="Rectangle_434" data-name="Rectangle 434" class="cls-10" width="2.397" height="14.041" transform="matrix(0.913, -0.407, 0.407, 0.913, 0, 0.976)"/>
        </g>
        <path id="Path_96" data-name="Path 96" class="cls-10" d="M229.6,152.851c.171.514.514,1.027.685,1.541.514-.171,1.027-.514,1.541-.685L258.2,84.87a7.8,7.8,0,0,1-.685-1.37l-1.541.514Z" transform="translate(-223.055 -83.329)"/>
      </g>
    </g>
  </g>
</svg>
