<svg xmlns="http://www.w3.org/2000/svg" viewBox="0 0 106.172 37.562">
  <defs>
    <style>
      .cls-1 {
        fill: #fff;
      }
    </style>
  </defs>
  <g id="Group_157" data-name="Group 157" transform="translate(0 0.1)">
    <path id="Path_117" data-name="Path 117" class="cls-1" d="M37.012,22.842a18.694,18.694,0,1,0-4.1,8.164l-6.176-6.133A10.082,10.082,0,0,1,9.56,22.884ZM9.433,22.588a9.767,9.767,0,0,1-.761-3.849,10.057,10.057,0,0,1,19.5-3.469h-11Z" transform="translate(0 -0.058)"/>
    <path id="Path_118" data-name="Path 118" class="cls-1" d="M123.012,22.784a18.694,18.694,0,1,0-4.1,8.164l-6.176-6.176A10.082,10.082,0,0,1,95.56,22.784ZM95.433,22.53a9.767,9.767,0,0,1-.761-3.849,10.057,10.057,0,0,1,19.5-3.469h-11Z" transform="translate(-49.622 0)"/>
    <g id="Group_156" data-name="Group 156" transform="translate(72.459 1.211)">
      <path id="Path_119" data-name="Path 119" class="cls-1" d="M171.3,39.209l15.989-26.437H172.231V3h32.782l-15.9,26.437h15.4v9.814H171.3Z" transform="translate(-171.3 -3)"/>
    </g>
  </g>
</svg>
